% This LilyPond file was generated by Rosegarden 1.7.3
\version "2.10.0"
% point and click debugging is disabled
#(ly:set-option 'point-and-click #f)
\header {
	title = "Hazme un instrumento de tu paz"
	subtitle = "Oración de San Francisco de Asís"
	tagline = "Coro Juvenil San Juan Bosco"
	arranger = "Sebastian Temple"
	instrument = "Mezzosoprano"
}
#(set-global-staff-size 20)
#(set-default-paper-size "letter")
\paper {
	#(define line-width (* 7 in))
	print-first-page-number = ##t
	ragged-bottom = ##t
	first-page-number = 1
}
global = {
	\time 4/4
	\skip 1*45
}
globalTempo = {
	\tempo 4 = 75  \skip 1*45
}
\score {
	<<
		% force offset of colliding notes in chords:
		\override Score.NoteColumn #'force-hshift = #1.0

		\include "hazmeuninstrumentodetupaz-acordes.inc"
		\include "hazmeuninstrumentodetupaz-mezzo.inc"

	>>
}
